…
df_tibble <- tibble(
  state     = states,
  #the curves
  mortality = tfd(Wd, arg = tnum)  
) %>%
  mutate(
    highlight = if_else(
      state %in% c("New Jersey","Louisiana","California","Maryland","Texas"),
      state, "Other"
    ),
    highlight = factor(highlight, levels = c("Other",
                                             "New Jersey","Louisiana","California","Maryland","Texas"))
  )

## # A tibble: 52 × 3
##    state                                                  mortality highlight 
##    <chr>                                                  <tfd_reg> <fct>     
##  1 Alabama               [1]: ( 3,  0.8);(10,  7.5);(17,-15.2); ... Other     
##  2 Alaska                [2]: ( 3,   -5);(10,   25);(17,    7); ... Other     
##  3 Arizona               [3]: ( 3,   -7);(10,    6);(17,    6); ... Other     
##  4 Arkansas              [4]: ( 3,   -7);(10,   28);(17,   -1); ... Other     
##  5 California            [5]: ( 3,    5);(10,    2);(17,    4); ... California
##  6 Colorado              [6]: ( 3,    3);(10,    7);(17,    4); ... Other     
##  7 Connecticut           [7]: ( 3,  0.3);(10,  0.8);(17,  3.1); ... Other     
##  8 Delaware              [8]: ( 3,   14);(10,   -1);(17,   -9); ... Other     
##  9 District of Columbia  [9]: ( 3,    3);(10,    8);(17,   49); ... Other     
## 10 Florida              [10]: ( 3,    6);(10,   10);(17,    8); ... Other     
## # ℹ 42 more rows
…
