…
# ── Prepare data for plotting ──────────────────

state_df <- tibble(
  state = new_states,
  curve = state_tf
)

# A tibble: 52 × 2
#    state                                                   curve
#    <chr>                                               <tfd_reg>
#  1 Alabama               [1]: ( 0, 0.8);( 7, 8.3);(14,-6.9); ...
#  2 Alaska                [2]: ( 0,  -5);( 7,  19);(14,  26); ...
#  3 Arizona               [3]: ( 0,  -7);( 7,  -1);(14,   5); ...
#  4 Arkansas              [4]: ( 0,  -7);( 7,  21);(14,  20); ...
#  5 California            [5]: ( 0,   5);( 7,   7);(14,  12); ...
#  6 Colorado              [6]: ( 0,   3);( 7,  10);(14,  14); ...
#  7 Connecticut           [7]: ( 0, 0.3);( 7, 1.1);(14, 4.2); ...
#  8 Delaware              [8]: ( 0,  14);( 7,  13);(14,   4); ...
#  9 District of Columbia  [9]: ( 0,   3);( 7,  11);(14,  60); ...
# 10 Florida              [10]: ( 0,   6);( 7,  15);(14,  24); ...
# ℹ 42 more rows
…
# ── Data Transformation ───────────────────
covid_df <- tibble(
  state = new_states,
  curve = covid_tf
)
# A tibble: 52 × 2
#    state                                          curve
#    <chr>                                      <tfd_reg>
#  1 Alabama               [1]: ( 0,0);( 7,0);(14,0); ...
#  2 Alaska                [2]: ( 0,0);( 7,0);(14,0); ...
#  3 Arizona               [3]: ( 0,0);( 7,0);(14,0); ...
#  4 Arkansas              [4]: ( 0,0);( 7,0);(14,0); ...
#  5 California            [5]: ( 0,0);( 7,0);(14,0); ...
#  6 Colorado              [6]: ( 0,0);( 7,0);(14,0); ...
#  7 Connecticut           [7]: ( 0,0);( 7,0);(14,0); ...
#  8 Delaware              [8]: ( 0,0);( 7,0);(14,0); ...
#  9 District of Columbia  [9]: ( 0,0);( 7,0);(14,0); ...
# 10 Florida              [10]: ( 0,0);( 7,0);(14,0); ...
# ℹ 42 more rows
…
